^F:\CODING\LEETCODE\SORTLIST\SORTLIST\DEBUG\SORTLIST.OBJ
F:\CODING\LEETCODE\SORTLIST\DEBUG\SORTLIST.ILK
F:\CODING\LEETCODE\SORTLIST\DEBUG\SORTLIST.EXE
F:\CODING\LEETCODE\SORTLIST\SORTLIST\DEBUG\SORTLIST.EXE.INTERMEDIATE.MANIFEST
F:\CODING\LEETCODE\SORTLIST\DEBUG\SORTLIST.PDB
