^F:\CODING\LEETCODE\WORDBREAK\WORDBREAK\DEBUG\SRC.OBJ
F:\CODING\LEETCODE\WORDBREAK\DEBUG\WORDBREAK.ILK
F:\CODING\LEETCODE\WORDBREAK\DEBUG\WORDBREAK.EXE
F:\CODING\LEETCODE\WORDBREAK\WORDBREAK\DEBUG\WORDBREAK.EXE.INTERMEDIATE.MANIFEST
F:\CODING\LEETCODE\WORDBREAK\DEBUG\WORDBREAK.PDB
