^D:\CODING\LEETCODE\CONSECUTIVE\CONSECUTIVE\SRC.CPP
D:\CODING\LEETCODE\CONSECUTIVE\CONSECUTIVE\DEBUG\VC120.PDB
D:\CODING\LEETCODE\CONSECUTIVE\CONSECUTIVE\DEBUG\VC120.IDB
D:\CODING\LEETCODE\CONSECUTIVE\CONSECUTIVE\DEBUG\SRC.OBJ
