^F:\CODING\LEETCODE\INSERTSORTLIST\INSERTSORTLIST\DEBUG\SRC.OBJ
F:\CODING\LEETCODE\INSERTSORTLIST\DEBUG\INSERTSORTLIST.ILK
F:\CODING\LEETCODE\INSERTSORTLIST\DEBUG\INSERTSORTLIST.EXE
F:\CODING\LEETCODE\INSERTSORTLIST\INSERTSORTLIST\DEBUG\INSERTSORTLIST.EXE.INTERMEDIATE.MANIFEST
F:\CODING\LEETCODE\INSERTSORTLIST\DEBUG\INSERTSORTLIST.PDB
