^D:\CODING\LEETCODE\PATHSUMII\PATHSUMII\SRC.CPP
D:\CODING\LEETCODE\PATHSUMII\PATHSUMII\DEBUG\VC120.PDB
D:\CODING\LEETCODE\PATHSUMII\PATHSUMII\DEBUG\VC120.IDB
D:\CODING\LEETCODE\PATHSUMII\PATHSUMII\DEBUG\SRC.OBJ
