^F:\CODING\LEETCODE\CANDY\CANDY\DEBUG\SRC.OBJ
/ERRORREPORT:PROMPT /OUT:"F:\Coding\leetcode\Candy\Debug\Candy.exe" /NOLOGO kernel32.lib user32.lib gdi32.lib winspool.lib comdlg32.lib advapi32.lib shell32.lib ole32.lib oleaut32.lib uuid.lib odbc32.lib odbccp32.lib /MANIFEST /ManifestFile:"Debug\Candy.exe.intermediate.manifest" /MANIFESTUAC:"level='asInvoker' uiAccess='false'" /DEBUG /PDB:"F:\Coding\leetcode\Candy\Debug\Candy.pdb" /TLBID:1 /DYNAMICBASE /NXCOMPAT /IMPLIB:"F:\Coding\leetcode\Candy\Debug\Candy.lib" /MACHINE:X86 Debug\src.obj
^F:\CODING\LEETCODE\CANDY\CANDY\DEBUG\SRC.OBJ|F:\CODING\LEETCODE\CANDY\CANDY\DEBUG\SRC2.OBJ|F:\CODING\LEETCODE\CANDY\CANDY\DEBUG\SRC3.OBJ
/ERRORREPORT:PROMPT /OUT:"F:\Coding\leetcode\Candy\Debug\Candy.exe" /NOLOGO kernel32.lib user32.lib gdi32.lib winspool.lib comdlg32.lib advapi32.lib shell32.lib ole32.lib oleaut32.lib uuid.lib odbc32.lib odbccp32.lib /MANIFEST /ManifestFile:"Debug\Candy.exe.intermediate.manifest" /MANIFESTUAC:"level='asInvoker' uiAccess='false'" /DEBUG /PDB:"F:\Coding\leetcode\Candy\Debug\Candy.pdb" /TLBID:1 /DYNAMICBASE /NXCOMPAT /IMPLIB:"F:\Coding\leetcode\Candy\Debug\Candy.lib" /MACHINE:X86 Debug\src.obj
Debug\src2.obj
Debug\src3.obj
